{
	"id": "e323fa15-fea7-ccb6-f416-b8f77eeaade1",
	"name": "escapada",
	"description": "",
	"order": [
		"7501fe63-0681-0d3e-b654-b295d1f4ac2d",
		"ee1da82a-6f01-1fb3-db60-3d9ce13efee6"
	],
	"folders": [],
	"folders_order": [],
	"timestamp": 1568061086138,
	"owner": "6007939",
	"public": false,
	"requests": [
		{
			"id": "7501fe63-0681-0d3e-b654-b295d1f4ac2d",
			"headers": "",
			"headerData": [],
			"url": "{{URL}}/test",
			"queryParams": [],
			"pathVariables": {},
			"pathVariableData": [],
			"preRequestScript": null,
			"method": "GET",
			"collectionId": "e323fa15-fea7-ccb6-f416-b8f77eeaade1",
			"data": null,
			"dataMode": "params",
			"name": "test",
			"description": "",
			"descriptionFormat": "html",
			"time": 1568061089125,
			"version": 2,
			"responses": [],
			"tests": null,
			"currentHelper": "normal",
			"helperAttributes": {}
		},
		{
			"id": "ee1da82a-6f01-1fb3-db60-3d9ce13efee6",
			"headers": "",
			"headerData": [],
			"url": "{{URL}}/prebooking",
			"queryParams": [],
			"preRequestScript": null,
			"pathVariables": {},
			"pathVariableData": [],
			"method": "POST",
			"data": [
				{
					"key": "traveler_firstname",
					"value": "TestTravelerFirstName",
					"description": "",
					"type": "text",
					"enabled": true
				},
				{
					"key": "traveler_lastname",
					"value": "TestTravelerLastName",
					"description": "",
					"type": "text",
					"enabled": true
				},
				{
					"key": "traveler_email",
					"value": "testtraveleremail@mail.com",
					"description": "",
					"type": "text",
					"enabled": true
				},
				{
					"key": "traveler_phone",
					"value": "93333333333",
					"description": "",
					"type": "text",
					"enabled": true
				},
				{
					"key": "cottage_id",
					"value": "1",
					"description": "",
					"type": "text",
					"enabled": true
				},
				{
					"key": "start_date",
					"value": "2019/09/02",
					"description": "",
					"type": "text",
					"enabled": true
				},
				{
					"key": "end_date",
					"value": "2019/09/06",
					"description": "",
					"type": "text",
					"enabled": true
				},
				{
					"key": "prebooking_type",
					"value": "1",
					"description": "",
					"type": "text",
					"enabled": true
				},
				{
					"key": "people_number",
					"value": "4",
					"description": "",
					"type": "text",
					"enabled": true
				}
			],
			"dataMode": "params",
			"version": 2,
			"tests": null,
			"currentHelper": "normal",
			"helperAttributes": {},
			"time": 1568126794288,
			"name": "test_prebooking",
			"description": "",
			"collectionId": "e323fa15-fea7-ccb6-f416-b8f77eeaade1",
			"responses": []
		}
	]
}