{
  "traveler_firstname": "TestTravelerFirstName",
  "traveler_lastname": "TestTravelerLastName",
  "traveler_email": "testtraveleremail@mail.com",
  "traveler_phone": "93333333333",
  "cottage_id": "1",
  "start_date": "2019/09/02",
  "end_date": "2019/09/06",
  "prebooking_type": "1",
  "people_number": "4"
}
